{
  "project_info": {
    "project_number": "945750990747",
    "firebase_url": "https://thexprojectandroid.firebaseio.com",
    "project_id": "thexprojectandroid",
    "storage_bucket": "thexprojectandroid.appspot.com"
  },
  "client": [
    {
      "client_info": {
        "mobilesdk_app_id": "1:945750990747:android:cf1fcc4f66f7aca5",
        "android_client_info": {
          "package_name": "com.example.samte.thexprojectandroid"
        }
      },
      "oauth_client": [
        {
          "client_id": "945750990747-9oegvkvgdrqcood3dciqj0nhodkevuge.apps.googleusercontent.com",
          "client_type": 1,
          "android_info": {
            "package_name": "com.example.samte.thexprojectandroid",
            "certificate_hash": "882fe87e5459553d86742e6cefe49b2834087e58"
          }
        },
        {
          "client_id": "945750990747-cgeoceno3j5jogt3o2db32bopk260j31.apps.googleusercontent.com",
          "client_type": 1,
          "android_info": {
            "package_name": "com.example.samte.thexprojectandroid",
            "certificate_hash": "969a7c0fad6385bae00b34dc57d51585e372e7f0"
          }
        },
        {
          "client_id": "945750990747-cr1ga55q72fdakp9in12vd3dlr550t7u.apps.googleusercontent.com",
          "client_type": 3
        }
      ],
      "api_key": [
        {
          "current_key": "AIzaSyAOmdI6WAWtNo6lOL9sEUTGNfmUzS9ItbI"
        }
      ],
      "services": {
        "analytics_service": {
          "status": 1
        },
        "appinvite_service": {
          "status": 2,
          "other_platform_oauth_client": [
            {
              "client_id": "945750990747-cr1ga55q72fdakp9in12vd3dlr550t7u.apps.googleusercontent.com",
              "client_type": 3
            }
          ]
        },
        "ads_service": {
          "status": 2
        }
      }
    }
  ],
  "configuration_version": "1"
}